<svg width="22" height="20" viewBox="0 0 22 20" fill="none" xmlns="http://www.w3.org/2000/svg">
<path fill-rule="evenodd" clip-rule="evenodd" d="M5.38511 2.57359C6.11068 2.32669 7.52733 2.51859 7.88474 3.32656C8.18925 4.01527 8.43853 5.17075 8.45889 4.92613C8.50679 4.38243 8.46057 3.20334 8.71548 2.5933C8.90075 2.14857 9.2549 1.73409 9.76654 1.59618C10.1967 1.47863 10.7001 1.44536 11.142 1.54508C11.6093 1.64978 12.0955 1.98963 12.2731 2.30649C12.7959 3.23766 12.7637 5.1207 12.7914 5.02092C12.8961 4.62166 12.936 3.20972 13.2669 2.69288C13.4859 2.35074 14.0266 2.05255 14.3126 2.00861C14.7552 1.94153 15.2986 1.9298 15.7585 2.02843C16.1303 2.10891 16.6262 2.55526 16.7581 2.76925C17.0754 3.28404 17.2284 4.72234 17.2729 5.22821C17.2923 5.43679 17.3966 4.65073 17.736 4.15179C18.3655 3.22221 20.526 3.08642 20.5617 5.15696C20.5796 6.12284 20.5716 6.07838 20.5574 6.72763C20.5407 7.48903 20.5127 7.94902 20.4586 8.49997C20.4007 9.08775 20.2425 10.4203 20.0409 11.0625C19.9023 11.5039 19.453 12.4935 19.017 13.0833C19.017 13.0833 17.366 14.8926 17.1724 15.718C16.9788 16.5449 17.0372 16.5521 16.9883 17.1386C16.9409 17.7266 17.14 18.5045 17.14 18.5045C17.14 18.5045 15.9354 18.6317 15.2883 18.5142C14.704 18.4099 14.0033 17.246 13.8235 16.8907C13.5761 16.4011 13.0237 16.482 12.8015 16.8344C12.4532 17.3922 11.7037 18.39 11.1909 18.4423C10.1849 18.5443 8.10819 18.4191 6.4814 18.3688C6.4814 18.3688 6.79147 16.883 6.18482 16.3575C5.73582 15.9638 4.96542 15.1734 4.50345 14.7558L3.28548 13.3695C2.8727 12.829 1.81282 11.9658 1.4855 10.3997C1.19629 9.01158 1.2426 8.33497 1.59813 7.78914C1.95834 7.23456 2.6219 6.94201 2.899 6.89492C3.21228 6.83977 3.93801 6.86008 4.20918 7.01512C4.53963 7.20393 4.67344 7.26 4.92838 7.60808C5.26339 8.06863 5.38155 8.29118 5.2439 7.79361C5.13839 7.40452 4.78023 6.90508 4.62437 6.34806C4.47256 5.8118 4.05346 4.94343 4.10377 4.08385C4.1229 3.75801 4.28312 2.94956 5.38511 2.57359Z" fill="white"/>
<path fill-rule="evenodd" clip-rule="evenodd" d="M5.38511 2.57359C6.11068 2.32669 7.52733 2.51859 7.88474 3.32656C8.18925 4.01527 8.43853 5.17075 8.45889 4.92613C8.50679 4.38243 8.46057 3.20334 8.71548 2.5933C8.90075 2.14857 9.2549 1.73409 9.76654 1.59618C10.1967 1.47863 10.7001 1.44536 11.142 1.54508C11.6093 1.64978 12.0955 1.98963 12.2731 2.30649C12.7959 3.23766 12.7637 5.1207 12.7914 5.02092C12.8961 4.62166 12.936 3.20972 13.2669 2.69288C13.4859 2.35074 14.0266 2.05255 14.3126 2.00861C14.7552 1.94153 15.2986 1.9298 15.7585 2.02843C16.1303 2.10891 16.6262 2.55526 16.7581 2.76925C17.0754 3.28404 17.2284 4.72234 17.2729 5.22821C17.2923 5.43679 17.3966 4.65073 17.736 4.15179C18.3655 3.22221 20.526 3.08642 20.5617 5.15696C20.5796 6.12284 20.5716 6.07838 20.5574 6.72763C20.5407 7.48903 20.5127 7.94902 20.4586 8.49997C20.4007 9.08775 20.2425 10.4203 20.0409 11.0625C19.9023 11.5039 19.453 12.4935 19.017 13.0833C19.017 13.0833 17.366 14.8926 17.1724 15.718C16.9788 16.5449 17.0372 16.5521 16.9883 17.1386C16.9409 17.7266 17.14 18.5045 17.14 18.5045C17.14 18.5045 15.9354 18.6317 15.2883 18.5142C14.704 18.4099 14.0033 17.246 13.8235 16.8907C13.5761 16.4011 13.0237 16.482 12.8015 16.8344C12.4532 17.3922 11.7037 18.39 11.1909 18.4423C10.1849 18.5443 8.10819 18.4191 6.4814 18.3688C6.4814 18.3688 6.79147 16.883 6.18482 16.3575C5.73582 15.9638 4.96542 15.1734 4.50345 14.7558L3.28548 13.3695C2.8727 12.829 1.81282 11.9658 1.4855 10.3997C1.19629 9.01158 1.2426 8.33497 1.59813 7.78914C1.95834 7.23456 2.6219 6.94201 2.899 6.89492C3.21228 6.83977 3.93801 6.86008 4.20918 7.01512C4.53963 7.20393 4.67344 7.26 4.92838 7.60808C5.26339 8.06863 5.38155 8.29118 5.2439 7.79361C5.13839 7.40452 4.78023 6.90508 4.62437 6.34806C4.47256 5.8118 4.05346 4.94343 4.10377 4.08385C4.1229 3.75801 4.28312 2.94956 5.38511 2.57359Z" stroke="black" stroke-width="0.75" stroke-linejoin="round"/>
<path d="M15.6237 14.1626L15.7354 9.05859" stroke="black" stroke-width="0.75" stroke-linecap="round"/>
<path d="M12.6004 14.1137L12.6885 8.98853" stroke="black" stroke-width="0.75" stroke-linecap="round"/>
<path d="M9.71875 8.97021L9.63964 14.0262" stroke="black" stroke-width="0.75" stroke-linecap="round"/>
</svg>
